Name,Instagram
A Yang,acer_yang
Aaron Baxter,gym_rat1988
Aaron Burch,muscle_man93
Aaron Chapple,chap_training
Aaron Hagan,aaronhgn
Aaron Lister,aaron_power_lister
Aaron Menden,aaron.menden
Aaron Palko,oklap
Aaron Purdy,aopurdy
Aaron Simm,aaron.simm
Abby Burg,anb614
Abigail Grich,abbsagails
Abner Nazario,abner_n181
Abraham Ramirez,abe_rawmirez
Adam Bell,adam.bell.102
Adam Boucher,adamboucher17
Adam Cooper,ahcoop21
Adam Ezzat,purgatory_24
Adam Ferchen,aferchen
Adam Jackson,photojadamj
Adam Leidigh,meathead_adam
Adam Miller,amillermi40
Adam Pickles,picklesadam
Adam Ramzy,arramzy
Adam Sawyers,adam.asc
Adam Werner,big_wern
Adam Whitescarver,thicc_wolverine
Adil Khan,dannyak13
Adrian Knox,aknox868
Afua Adjei-Brenyah,generic_afua
Ahmed Ellahie,ae_strength
Aiden Potts,pottsteriorchain
Ainslee Hooper,ainslikesstuff
Aisling Lynch,thisveganlove
AJ Alvarez,aj_alvarez52
AJ Roberts,ajroberts
Alaina Hernandez,tattooedrn
Alan Gilbreath,texaspowerlifter
Alan Thrall,untamedstrength
Alastair MacNicol,amacnicol
Aleem Majid,mr_hencherz
Alek Mosholt,the_amos050
Aleksandr Ryashchikov,a.ryaschikov22
Aleksey Nikulin,adlyzhnik
Alex Deken,alexdekenpl
Alex Ghossein,alex_the_sicko
Alex Gordon,thatman_gordo
Alex Hamblin,no_equipment_needed
Alex Harmston,66kg_alex
Alex Palmer #1,alexpalmer2412
Alex Simon,godlystrong
Alex Viada,alex.viada
Alexander Espin,aespin7
Alexander Goodwin,alex_1rm
Alexandra Elzein,aslimmersnark
Alexandra Messner,quad_zilluh
Alexandra Roth,squatbenchcode
Alexey Kuzmin,alexeykuzmin.official.raw
Alexey Sivokon,alexey_sivokon
Alexis Callejo,lexi__t
Alexis Carvalho,alexisvnc
Alexis Eliopoulos,nikyu1
Ali Squiller,squillerz
Alison Crowdus,powerpack_ali
Allegra Hudson,ahuds47kg
Allen Baria,allen.baria.ab
Allen Fisher #1,basement_strong
Allie Feras,trainhardpizzaharder
Allie Rosales,alliecat90
Allison Hind,allisonhind.pl
Alora Griffiths,aloragriffiths
Amador Rios,the1armani
Amanda Bucci,amandabucci
Amanda Kate Parker,amandakate
Amanda Kohatsu,haparican
Amber Abweh,swoleesi
Amber Mathews,amberr_alice
Amber Simpkins,ansimpkins02
Amelia Onyshkevich,amelialifts
Amenah Razeghi,onestrongnurse
Amit Sapir,ifbbproamitsapir
Ana de Joux,onekiwiana
Ana Lopez,ana_the_fierce
Ana Pérez,ana_smash
Ana Rosa Castellain,anarosacastellain
Anand Jobanputra,underdog.strength
Anand Patel,anandpulls
Anastasia Lanz,anastasialanz
Anatolii Novopismennyi,novopysmennyi
Andre' Easter II,easterstrong
Andrea White,supazanii
Andres Ramos,andres59kg_
Andrew Anctil,andrewanctil
Andrew Desesa,deflex_daddy_sir
Andrew Hause,andrewhause
Andrew Herbert,herbietheluvbug
Andrew Kershaw,andykershaw90
Andrew King,bigfatfuk
Andrew Le,vietiron
Andrew McCartney,carson_am
Andrew Ogden,oggie_froggy
Andrew Ottaway,weak_lil_guy
Andrew Pfefferle,atrain34946
Andrew Richey,andrewrichey215
Andrew Sandoval,drewbsh56
Andrew Shahbazian,therealshahbazian
Andrew Sia,theawpsia
Andrew Weiser,weiserandrew275
Andrey Malanichev,andrey_malanichev
Andrey Sus,ivandrago_powerlifter
Andy Askow,andyaskow
Andy Bolton,andybolton1003
Andy Bosnyak,andyboz4
Andy Foster,bigunfromwigan
Andy Hargreaves,fatguywholifts
Andy Huang,that_hugeasian_guy
Angela Mayor,angie138
Angelo Fortino,14o_power
Ann Vanderbush,avpowersports
Anna Khudayarov,annakhudayarov
Anna Mccloskey,annaelliise
Anne Sheehan,ifbbproannesheehan
Annika Zelander,ackimacki
Anthony Betcher,betcher94
Anthony Estrella,sirfistsalot__
Anthony Hobaica,hollywood_hobz
Anthony Iacoviello,andtoe_knee
Anthony Oliveira,anthonycw13
Anthony Salas,bigtone88
Anthony Sberna,sbernaslam
Anthony Thorn,thorn0024
Antti Savolainen,a_savolainen
Apollo La Mig,apollothemighty
April Disparte,holdingagreatbreath
April Shumaker,aprilshumaker
Aria Attia,bigpoppachizl
Arian Behbehani,arian.b92
Arief Hunter,waterboy19
Arkadiy Shalokha,shalokha1983
Arlind Queriman,arlindthegreat
Armando Carreon,ac_power07
Artemio Zambrano Jr,bigart18
Arthi Nithi,arthi.nithi
Arthur Lynch,arthurlynch
Artur Chrzaszcz,beetlejuiced666
Asa Barnes,preacher_power_barbell_club
Ashleigh Uhl,ashleigh_uhl
Ashley Cooper,coop_strong
Ashley Garcia,phatash5
Ashley Gleckler,lawlift_az
Ashley Lepcin,barbells_and_bunnies
Ashton Ewoldsen,ashtonewoldsen
Ashton Rouska,ashh117
Aspen Shirley,aspenrenae67
Athena Waldstein,_athenawaldstein_
Atomu Wakamatsu,atomwaka
Augustine Venero,augustus_lifts
Austin Ayala,amichael165
Austin Baraki,a.z.b
Austin Beatty,big_dusty_
Austin Patkos,austinpatkos
Austin Rodenberry,austinrodenberry
Austin Skeens,powerskeeter
Auston Weinberg,theaustonw
Ayla Thurstan,athurstan
Babneet Dhillon,babdhillon
Barbara Lee,msbarbellbarbie
Barry Antoniow,canadapowerliftingcoach
Barry Pigott,barryp91
Barzeen Vaziri,fattestillinoislifter
Beau Moore,beau.moore52
Becca Swanson,bigbeccaswanson
Beckett Scannelli,beckettscannellipower
Becki Pierotti,bpierotti
Ben Borger,powpowbennyb
Ben Gianacakos,bengianacakos
Ben O'Brien,b3nobri3n8
Ben Pollack,phdeadlift
Ben Puccio,benpuccio
Ben Rice,ben.rice.10
Ben Winstone,thewhitejuggernaut
Benedikt Magnússon,benni_magnusson
Benjamin Smith,dr.smitty_
Bernie Northrop,bernienorthrop
Bethany Parker,_beethanny_
Bill Newman,isaku900
Bill Tenerelli,billbro_liftins
Billa Hamilton,billahamilton
Billy Mimnaugh,bmimnaugh
Billy Redd,billybonelegs
BJ Whitehead,bj.whitehead
Blaine Houck,blaine8999
Blaine Sumner,thevanillagorilla92
Blaise Sardanelli,blaisesardanelli
Blake Horton,blakehorton23
Blake Taylor,rectus_abdominis
Blanca Villoch,blanca_villoch
Blaze Alpha,alpha_athlete
Bob Merkh,merkh1776
Bobby Purser,bobkeith3
Bobby Scott,bwscott89
Bobby Vongphachanh,bigbootyboobybruh
Bonica Lough,bubblypowerlifter
Bonnie Schroeder,bonschro
Boris Terry,nattygorilla760
Brad Arbic,brad_arbic
Brad Crawford,bhoss601
Brad Ettinger,bkepower
Brad Neitzel,bradneitzel188
Brad Slining,pooklifts
Braden Moss,frequent_username_changes
Braden Warwick,bwarmachine
Bradina Anae,bradinaanae
Bradley Heinss,bradleyheinss
Brady Stewart,thebradystewart
Brandi Sneed,juggernautprincess
Brandis Dew,b_dew_powerlifting
Brandon Allen,brandon_allen88
Brandon Byrd #1,ibyrdman
Brandon Carpenter,lecarpetron275
Brandon Franklin,frankdaddy29
Brandon Lilly,brandonlilly3
Brandon Maddox,deathbysquat
Brandon Martin,bmartinpl
Brandon Perdue,perdueb84
Brandon Pierro,_orreip_
Brandon Smitley,bsmitley
Brandon Stout,_brandonstout
Brandon Tan,princebundun
Brandon Turner #1,brandingo_t
Brantley Thornton,brantleythornton
Brendan Wulf,big_badwulf
Brent Drake,cdrexcod
Brett Benedix,brettbenedix
Brett Chrisman,brettchrisman
Brett Gibbs,bg_waiweight
Brett Hiller,brett.hiller
Brian Cain,powerlift_unter
Brian Carroll,briancarroll81
Brian Cook,briancookpl
Brian Pham,phambri
Brian Reed,brianscottreed
Brian Ross,komodo_br
Britta Maggard,britta_maggard
Brittainy Chown,britt_chown75
Brittany Lowery,ozarkbarbelle
Brittany Pryor,jadessence
Brittany Shackelford,brittany_shack
Brodie Blankenship,brodie.blankenship
Brogan Williams,fight4growth
Bronwen Blunt,bron_strong
Brooks Cuzick,brooks.cuzick
Bruce Mason,masonbruce308
Bryan Hartman,bryan_hartman
Bryan Hartsel,trapslikemountains
Bryan Mutek,bryanmutek
Bryan Wong,brywonglifts
Bryant Dilda,punisherpwrlftr
Bryce Krawczyk,calgarybarbell
Bryce Lewis,bryce_tsa
Burley Hawk,burleyhawk
Cailer Woolam,doctor.deadlift
Caitlin Cardone,upstate_caitlin
Caitlyn Dunlap,lilpowerbuilder
Caleb Tincher,ctinch90kpl
Callan Gibbons,callangibbons
Callum McGovern,callum.mcgovern_pl
Callum Pearce,callumsenpai
Calvin Wren,hound15
Cameron Collins,cam.collins94
Cameron Leslie,almostcameron
Cameron McKenzie,camstrength
Camille Holland,camilleholland
Cara Cable,progress.not.perfection
Carina Davis,quadzilla619
Carla Fink,carla_fink
Carlos Leon,carleon44
Carlos Moran,thewinterwolves
Carlos Reyes,creyes55
Caroline Lyonnais,viking_goddess31
Carrie Grissinger,mrssquatsalot
Casey Williams,thecaseywilliams
Cat Hawkins,kitty.lifter
Caterine González,catpowerlift
Ceasar Amado,cezzzus
Celia Gomez,celiasomethinggood
Chad Hammond,meatpower45
Chad Walker,cwalkershw
Chad Wesley Smith,chadwesleysmith
Chakera Holcomb,c.c_holcomb
Channing Doyle,channingdoyle
Charisse Surio,chuhreese
Charity Rogers,charity_jolley
Charles Binkley,charliebink1ey
Charles Okpoko,charlesokpoko
Charles Yarrington,csyarrington
Charlie Chester,charlie_chester_powerlifter
Charlie Dickson,cdickson3245
Charlie Shotton-Gale,charliesgale
Charly Joung,charlton_banks
Chase Mann,chasemann13
Chelsea Savit,savvysavit
Chenney Tran,aznfatcow
Cheyanne Pelletier,nh_warpony
Chhanchhaya Chham,chhaya_the_moonlight
Chiara Allen,redheadstrong
Chico Cloyne,chicocloyne
Chleo Van Wyk,chleo_v_wyk
Chloe Lansing,war_pony_
Chris Billups,chrisbillups
Chris Bridgeford,bridgeford242
Chris Crisman,chriscrisman_bigbear
Chris Della Fave,mr__dfave
Chris Duffin,mad_scientist_duffin
Chris Dunn,m10ak3y
Chris Etherington,veganpowerlifter
Chris Garcia,chrisrobinsin
Chris Hut,heyimchrisnotdennis
Chris Janek,tankstrainingfacility
Chris Jones,training_to_inspire
Chris Lee,christopher_lee_41
Chris Lentini,lentiniliftsheavy
Chris Lindsay,chrislindsay56kg_masters1
Chris Paschal,tr3ndingtopik
Chris Ramos,chrisramos007
Chris Ruden,chrisruden
Chris Stamatiou,critta_
Chris Tyrrell,christopher_tyrrell
Chris Weist,unleash_the_weist
Chris Williams,cdubpower
Chris Yim,yimdatgymrat
Christian Anto,ant_toe
Christian Habihirwe,chestnificent
Christian Kearney,ya_im_dat_dude
Christian Rojas,deadliftsandpaws
Christian Wallace,cwally132
Christina Hauck,christina56
Christina Peracchi,chrissymaxpower
Christina Valeri,meanteen1226
Christine Beauchamp,omnomnomnomcookies
Christine Castro,sneakersoverstilettos
Christophe Rebreyend,chreizr
Christopher Aydin,aydin_tsa
Christopher Blanquera,chrisblanquera
Christopher Cianci,shanky041809
Christopher Karmin,cm_k40
Christopher Nicolai,nicolai60
Christopher Vann,vann_man
Christopher Wichtl,bigwichtlpowerlifting
Christopher Wong,chris_strong_wong
Chuck Driscoll,chuckdriscoll
Ciarra Hutton,ciarralifts_808
Cillian Hurley,cillian_hurley
Cindy Tran,cindyystrong
CJ Mendoza,youremyheroine_
Claire McKenzie,claire.rex
Claire Vize,builtlikeabarn
Clare Patterson,clare.mairead
Claudia Garcia,ohhshititsclaudia
Clay Edgin,swolebiz
Clayton Harrell,clayton_harrell
Clifton Pho,clifton_pho
Cody Carpentier,carpentierpowerlifting120kg
Cody Hoffman,codyiak_bear
Cody Lefever,thefeverfever
Cody Massey,cmass2225
Cody Ray,codywray9811
Cody Robbins,newegro
Cody Tormoehlen,codytormoehlen
Cole Niblett,swolegiblett
Colin Wright,colywright
Colleen Fitzpatrick,colleendf
Collin Curtiss,colesoswoll
Collin Grant #1,cgrizzle1523
Collin Whitney,ct_whitney
Colton Hurley,churley198
Colton Magers,colton.magers
Conal Nicholls,thicc_papii
Conner Branch,conmanbranch
Connor Logue,logiebear_
Connor Lutz,clutz.training
Connor Mason,atlas_short_story
Connor Walsh,connorwalsh_powerlifter98
Cooper Wage,wagepl
Corbyn Arnold,arnold.corbyn
Corey Britton,coreysmash
Corey Crook,deprimo
Corine DeJong,ilovepowerlifting
Cory Weisbeck,cp_double_u
Coty Collins,cotycollins22
Courtney Norris,fueledbyiron
Courtney Smith,ironcourt
Craig Malkowicz,gotmalk_
Cristian Valdez,cris_valdez4
Cryssa Dragon,cryssaboo
Crystal Tate,ctate87
Crystal Trace,crystal_trace
Curtis Hudson,el_lobo_solo_
Curtis Miller,curtismiller_sc
Cynthia Leu,cynthialeu
Cyprian Thompson Jr,bobby.booshay
DaeVon McFarlane,von_strength
Daine Hish,hish.daine
Dakoda Gayne,keg_with_abs
Dakoda Plumridge,dakoda_fanning
Dal Gains,dalgains
Dallas Bey,dallasbey
Dallas Norris,norrisstrong
Dalton Cissell,dcissell5
Dalton LaCoe,53kglifter
Damien Pezzuti,damienpezzuti
Dan Green,dangreenpowerlifter
Dan Kovacs,dankovacs2500
Dan Neundorf,darksydeshw
Dan Stephenson,idealstrength
Dana Applegarth,dapple_
Dana Linn Bailey,danalinnbailey
Dane Dillon,danejdillon
Daniel Bedford,bedford_strength_systems
Daniel Bell,dbell_74
Daniel Casson,static_athlete
Daniel Kranitz,danielkranitz
Daniel Morgan,dan56morgan
Daniel Nguyen,imthenguyener
Daniel Nichols,danpowerlifts
Daniel Olajiga,dt.o95
Daniel Romeo,daniel_romeo1
Daniel Sturge,thors_follower_son_of_turgis
Daniel Worsley,danworsley1
Daniella Melo,daniellamelo
Daniella Tuimatai,della.powerlifter_doublethick
Danielle Columby,danielle_rose27
Danielle Couture,dee.couture
Danielle Overcash,danicashdpt
Danielle Pressler,fit_miss_dani
Daphne Zhang,daphne_wants_a_6pack
Darren Sokluski,drock_david
Daugintas Blekaitis,beyourownhero_athletics
Dave Hoff,mr.3k10
Dave Jasiulewicz,thepowerturtle
Dave Soffen,dsoffen
David Clifford,dacdac65
David Douglas,davidthebeastdouglas
David Gray,davidgrayakalionpaw
David Herrera,davidherrera1119
David Isenberg,mr.isenberg
David Jenkinson,dave.jenkz
David Joplin,joplinsbd
David Knight,ironknight18
David Lomeli,lomeli198
David Lotito,davelotito
David Opare-Addo,hulkstrong6
David Osborn #1,daveatops
David Raymond,davethebarbarian16
David Shelton,dshel_11
David Sloan,strengthofsloan
David St. Romain,teamfreak318
David Thompson,officialtommyguns
David Troutt,dtrouttpowerlifter
David Van,dv_ph0t0bomb
David Watson,deadliftingdavid
David Woolson,davidwoolson
David Zyski,dzyski1730
Davy Capriles,davydoesntdocardio
Dawn Bogart,dawnbogart
Dawson Windham,dawsonwindham
Dayna McNeal,versus_myself
Dean Chung,deanrilla
Dean Panopoulos,deannyweenie92
Debra Hofer,bench_press_barbie
Deirdre Fenlon,fenlondeirdre
Dekwan Elfizgha,dkwand
Demietrich Baker,dboybaker
Denis Feise,denisfeise
Denis Grebenchenko,grebenchenko_denis
Denis LaBreche,denislabreche
Denise Herber,deniseherber_
Dennis Arnold,freakie_d_0550
Dennis Bitetti,dennisbitetti
Dennis Cornelius,denniscornelius500
Derek Dickinson,dderelick
Derek Ng,deadlifding
Derek Viet,derekdtrain
Derek Winans,winans05
Derick Douglas,metalheadderick
Derrington Wright,the_pineapple_king_
Devin Wiggins,wiggins_70
Devon Richards,dbuilt
Didzis Zarins,zarinsdidzis
Dillon Anderson,danderson1310
Dima Rumanov,dimarumanov
Dmitry Nasonov,_nasonov_d
Domenick Minnici,dom_minnici_powerlifter
Dominique Toney,toney_montana1
Donnie Ross,rosco_p_swoletrain
Donnie Thompson,thompsonbowtie
Donovin Reyes,thstrongest
Drew Cheatham,zookeeper_d
Drew Leggett,stillnutting
Dustin Reed,i.know.squat
Dustin Slepicka,imthatguyyouveneverheardof
Dustin Speed,dustin_speed
Dwayne Sigh,olmanstrength
Dylan Hellriegel,dylan_hellraiser
Dylan Mayer,dylliemays
Dylan McKinney,_dylan.m_
Dylan Polo,dylanpolo__
Ed Coan,eddycoan
Ed Collins,ed_collins3
Ed Knoblock,ed.k52
Ed Koo,ed_koo
Edan Davey,edandavey
Eddie Berglund,strongeddie
Eduard Khanjyan,eduardkhanjyan
Eduardo Garcia #1,kimbo_halfslice_
Edward Alicdan Jr,jralicdan
Edward Ryckman,fast.eddie_181
Edward Taylor,musclemantaylor
Edwin Nash,edwin_nash92
Eli Burks,eliburks3
Elizabeth Craven,lizpowerlifts
Elizabeth Grundy,maddog_grundy
Elizabeth West,westandweights
Ellen Seidel,ellen.seidel
Ellen Smith,ellenvsgravity
Ellen Stein,w8lifter222
Ellie Steel,xsteelxfitness
Elliot Wuorinen,el_wuorinen
Elliott Shults,ell_diabloooo
Ellissa Hull,ellissahull
Emily Burgess,_emburg
Emily DeMorest,em_powerfit13
Emily Greenway,emslifts
Emily Hu #1,ami_the_benchbrah
Emily Lin,linbarbell
Emily Nguyen,myaemily
Emily Smith,pandacat08
Emma Goodwin,egoodwin87
Emma Ife,ifeisshort
Emma Jarman,emma_gofigure
Emmanuel Bravo,thewhiterhino_
Eniola Fagbongbe,eni_md_0083
Enno Langelotz,liftinginseville
Eno Majomi,eno5050
Erbol Nauanov,erbolnauanov
Eric Bryce,ebryce22
Eric Lilliebridge,ericlilliebridge
Eric Loyola,fu_blown
Eric Quindipanda,quindipanda
Eric Ranney,animalrane
Eric Schwartz,naturalguy1
Eric Spoto,ericspoto
Erik Mata,erikmatapowerbuilder
Erik Willis,erikwillis
Erika Hipwell,erikahipwell
Erika Stevens,e.stevens11
Erin Stanton,erbeary88
Ernie Lilliebridge Jr,ernielilliebridgejr
Ernie Lilliebridge Sr,ernielilliebridgesr
Esther Lee,fueled.by.donuts
Ethan Dew,ethandew_vtpl
Ethan Fudge #1,iamsirbeefcake
Eugene Mccourt,genomccourt
Eugenia Tashquinth,fancylulu7
Eva Dunbar,evalaurabelle_ifbbpro
Evan Chaffey,evanchaffey
Evan McCloy,whotookmeethed
Evan Mensing,evan_mensing
Evan Snydman,evansnydman
Eve Lundmark-Bourke,evielundb
Evelyn Garcia,evelyngg13
Ewa Januszkiewicz,ejanss
Exal Garcia Carrillo,exal.garcia
Ezekiel Fecher,ezekielfecher
Fabbio Hu,faabbiohu
Fabien Ho Ching Ma,fab00ty
Ferdinand Luis,ferds_the_word
Flip Silva Jr,texas_freak
Forest Thoreson,forest59kg
Forrest Bush,forrestbush
Forrest Osborne,osbornejr_
Foster Parnell,fosterparnell
Francesca Paraz,swoleprincessfp
Francesco Catalano,f_catalano
Gabriel Kerr,ameri_kerr
Gabriel Velasco,gabrielvelascocscs
Gabriella Duchesne,gabbyduchesne
Gabrielle Mamani,pumping.fe
Gage Carreon,ga_jajaja
Gallia Porter,vegasrose666
Garmez Parks,gfifdeep
Garrett Bailey,bottesy
Garrett Blevins,garrettblessings
Garrett Fear,garrettfear
Garrett Griffin,gunz504
Gary Brewer,g_brewer_mmc
Gary Hunter,ghunter_champ
Gary Miller #1,garymillerfitness
Gavin Havard,gavinhavard
Gawain Johnstone,85gunit
Gehad Quraan,geethept
Genelle Vanderschantz,gvanderschantz
Gerald Dionio,tiny_n_tuff
Gerald Rogers,da_powerlifting_carebear
Geramy Alexander,g.a.powerlifting.181
Gerard Frederic-Lama,gerard_lama
Gillian Ward,gillianwardathlete
Gina Aversa,ginahalfwolf
Gloria Luong,xgloriohz
Gracie Vanasse,gracievanasse
Grant Brown,zieggystardust
Grant Shelton,grant_shelton1997
Grecia Torres,thebeast_powerlifter
Greg Panora,big_papi_panora
Greg Van Olm,greg_vo_powerlifter
Greg Wise,gwise90
Gregory Paterson,gregorybpaterson
Griffin Jennings,jennings198
Griffin Walizer,griffinwalizer
Guillermo Blanco,gmo68
Gustav Hedlund,gustav.hedlund
Hafiz Verdiyev,hafiz_verdiyev
Haidar Majzoub,haidarbrah
Hailey Kostynuik,haileykosty
Haley Randall,haley__randall
Hani Jazayrli,hani_tsa
Hanna Alvarez,bigbootybonquiqui
Hanna Rantala,hanna_rantala
Hannah Beaven,beezer5886
Hannah Philp,hanphilp33
Harry Bowman,harry_b_fit
Harshi Dassanayake,harshiyd1990
Harvey Robinson,farmerrobinson
Hayden Bowe,hayden.bowe
Hazel Hu,hazeline_hu
Heather Connor,stayfit_with_heather
Heather Davidson,bench_babe
Heather Vona,hvona
Hector Almeida,hector_powerlifting
Heidi Hille Arnesen,heididenville
Heidi Howar,mommy_n_ry_lifts
Henrik Edström,henrikedstrom
Hifon Smith,hogebobi
Hildeborg Juvet Hugdal,hildeborghugdal
Holly Baxter,hollytbaxter
Holly Beidelschies,hollylynn888
Holly Singer,manis_and_muscles
Ian Bell,iandeadlifts
Ian Kristman,kman_strong
Ian Matthews,jewstar613
Igor Bahtjak,igor_bahtjak01
Igor Matsko,matsko_igor
Ikechukwu Onuoha,jujupower1
Ingrid Barclay,ingridbarclay
Inna Filimonova,filimonovainna555
Irina Vitman,irina.vee93
Isabella von Weissenberg,ivweissenberg
Israel Fuentes,novaflash921
Ivan Podrez,podrezivan1100
Ivana Horná,ivana_horna
Ivy Knight,girlswhopowerlift
Izzy Greenblatt,izzyg_not72kg
Izzy Trafficante,izzy_fit1
Jabez Burford,jabez_burford
Jac Quarisa,_jac_attack_
Jack Fleming,jackkfleming
Jack Morrow,jack_the_deadlift_ripper
Jack Music,jackmusic220
Jack Suljevic,jacksuljevic
Jackson Drew,jaxdrew_
Jackson Hinch,beast_builder
Jackson Murrie,jacksonmurrie
Jackson Spencer,jackson_spencer
Jaclyn Do,jaclyndo
Jacob Craig,shake.an.jake
Jacob Downes,donutbarbell
Jacob Kurant,jacobkurant
Jacob McBride,the_iron_rook
Jacob Moore,moore_weight32
Jacob Vopat,odin_witness_this
Jacob Welch,jacobwelch2008
Jacqueline Wickens,jwicky9
Jacques Williams,jacques_ii
Jade Cooper,coopa__troopa
Jaeger Low,jaegernawt
Jaime Marquez,el_chorizo_rku
Jaisyn Mike,mr.athletic_over_everything
Jake Frazier,jakefrazierpowerlifting
Jake Hartman,hartmanstrength
Jake Heidenreich,jakeheidenreich
Jake Johns,bigscboy
Jake Thiele,jakeisalwaysright
James Duff,heresmejames
James Fowler,gainz4dayz_
James Gibson III,james.robert.gibson242
James Grant #1,granticusrex
James Koenig,jimmyray610
James Mooney,jamesmooneygc
James Novak,jamesleenovak
James Percy,oreothor
James Searcy,no_quit_searcy
James Skinner,flexjs
James Strickland,swimhack
James Vang,hmongpowerlifter
James Wakefield,wakefield5523
Jamie Bisset,strongbiz
Jamie Whitehead,james.whitey
Jana Hayes,jahemian
Janel Vegter,jcvegterlmt
Janette McClain,janette_juststrong
Janice Santiago,janicefitness4life
Janis Finkelman,janisfinkelman
János Rajmund Nagy,nagyjanipowerlifting
Jared Bratcher,jaredbratcher
Jared Brown,supermassive_black_swole
Jared Martin,the__albinorhino
Jared Scott,jared.scott74kg
Jared Skinner,drjskinner2315
Jasmin Benzant,alphafemfit
Jason Coker,jcoker220
Jason Coultman,jasoncoultman_strengthcoach
Jason Frawley,frawley49
Jason Hunton,jase_hunton
Jason Lambert,jason82999
Jason Legrand,jaselegrand
Jason Manenkoff,jasonmanenkoff165
Jason Sciacca,jasonsciacca
Jawon Garrison,the104th_avenger
Jay Brueggeman,jayman998
Jay Nera,jayneezy2100
Jay Semifero,jaysemi181
Jean-Luc Badon,jeanlucbadon
Jeanie Shellman,_jeaniie_
Jeanilee Sumagaysay,jenjitsu83
Jeanine Nutter,lilnuttbutt
Jeanine Whittaker,jwhitt206
Jeff Barnes,bigbarndoor
Jeff Cotter,senorcotter
Jeff Crosby,jm_crosby511
Jeff Frank,jeff.frank
Jeff Justo,friffstar
Jeff Nippard,jeffnippard
Jeff Spawton,jayspaw
Jeff Younker,babyhuey2k
Jen Hazzard,boones_mom
Jen Smith,powerliftersdiary
Jenn Rotsinger,jrotsinger
Jennifer Millican,jenmillican
Jennifer Thompson,jenthompson132
Jenny Sutherland,missjennylifts
Jensen Kierulff,jayrilla
Jeremiah Johnson,jeremiahwjohnson
Jeremy Avilla,jeremyavilla
Jeremy Brown,cr.brown77
Jeremy Cox,jeremyacox1
Jeremy Hamilton,jeremyhamiltonswife
Jeremy Hoornstra,hoornstra_strong
Jeremy Oleson,jeremyxoleson_
Jeremy Thibodeaux,hotnastystrong
Jeris Hall,jerishall3
Jerry Adkins,tator2k
Jerry Pritchett,jerrypritchettstrongman
Jesse Anderson,bigjess775
Jesse Bumpus,jessebumpus
Jesse Burdick,jesseburdick
Jesse Lanuevo,deadliftgod
Jesse Littleton,ironviking6
Jesse Moores,jessemoores_
Jesse Norris,jessenorr
Jesse Rodgers,southernpowerlifting_jesse
Jesse Shelton,stayxpuft_btb
Jessica Belt,jess_belt921
Jessica Benedetto,jbenedettopower
Jessica Brown,tucpowerlifting
Jessica Fletcher,jessfletch08
Jessica Giannina,jlgiannina
Jessica Hollinger,jess_michelle11
Jessica Okimura,jayyy_whyyy_ohhh
Jessica Piper,irfpdotnet
Jessica Raes,jessicalottraes
Jessica Zukowski,jessiczka_z
Jessika Byrd,lookitsabyrd
Jesus Morales,jesusmorales2525
Jetter Lewis,jetterlewis
Jezza Uepa,jezzauepa
Jihad Mardini,jihadthechamp
Jill Mills,1jill_mills
Jillian Lew,jillian_lew
Jim Benson,warriorelite49
Jim Corvin,utkaveman
Jimmie Pacifico,pacifico_power1
Jimmy Nguyen,jimmy_herostrength
Jimmy Paquet,jimpaquet
Jo Whiteley,stoneface_pl
Joanna Rieber,littlejo.r
Joanne Greagen,joanne_greagen
Joao Lazarin,jlazarin_165
Jodie Burford,jodie_lanae
Jodie Sajor,jsajor71109
Joe Ceklovsky,jackdupp148
Joe Coursey,the_traveling_warrior
Joe Greene,joe.greene91
Joe LaMariana,joelamarianapl
Joe Seiden,trashcan_joe
Joe Sullivan,joesullivanpowerlifter
Joel Shell,floatlikerock
Joey Ma,flatbenchjoe
Joey Madia,joeyygunns
Joey Tango,pootietango
John Alvarez,johnalvar3z.nj
John Fayer,fayerjw
John Haack,bilbo_swaggins181
John Halloran,skiing.highlander
John Kirby,kingkirby84
John Mylott,jfmylott3
John Oso Vervelakis,ironosopowerlifting
John Paul Cauchi,5trong
John Petrizzo,johnpetrizzo
John Pineda,jrpineda.prvl
John Reynolds,jdreynolds3
John Rivas,ghengis_john
John Severson,skaterjohn121
John Wilson Tharp,wilif_the_wanderer
John Wright,johnwright_97
Jon Idelson,jonathan_idelson
Jon McKinstry,snowflake_acid
Jon Vaughn,jonflexin
Jon Wawro,wonjawro
Jonah Liwag,jonahliwag
Jonah Varughese,jtvlifts
Jonathan Akagha,jayyyy99
Jonathan Bedard,alphajonathan
Jonathan Busby,flex_appeal__
Jonathan Cayco,league_of_lifting
Jonathan Chunn,jchunn88
Jonathan Clark,jon_mexico
Jonathan Cotton,cottonsense
Jonathan Davis,skrong_mcgee
Jonathan Garcia,jonathangarcia_66kg
Jonathan Harder,gone2cold
Jonathan Rodgers #1,jonisradical
Jonathan Vicente,jvbrz86
Jonnie Candito,canditotraininghq
Jonny Gardner,jonnyg_1980
Jordan Alexander,joalexander24
Jordan Bryson,jblifts_21
Jordan Buchla,gi_joe_barbie
Jordan Faria,jordan_faria
Jordan Feigenbaum,jordan_barbellmedicine
Jordan Jarrell,dadbod220
Jordan Lawler,chromedome1709
Jordan McLaughlin,jordmcl
Jordan Partington,jordanpartington
Jordan Shallow,the_muscle_doc
Jordan Wong,wongstwong
Jose Salgado,josesalgado90
Joseph Adamo,joseph_adamo1
Joseph Cappellino,bigjoecapp
Joseph Franzo,joeyflexx7
Joseph Kopito,_the_ape
Joseph Morse,joseph_morse
Joseph Park,dialect1luv
Joseph Peña,_hollapena
Joseph Sisombath,josephsisombath
Joseph Stein,littlehauss
Joseph Whittaker,whittakerpowerlifting
Joseph Williams,jowilliams0032
Josh Banks #1,jbanks120kg
Josh Caldwell,the_juicebox_
Josh Conley,josh_bigginsbrother1_conley
Josh Ellis,bearjewjosh
Josh Enmark,stupidlystrong
Josh Gage,_joshgage
Josh Goschnick,themilkybarkid97
Josh Hancott,joshhancott
Josh Hyaduck,joshhyaduck
Josh Lentz,jlentz220
Josh Morris,joshmmorris24
Josh Rayson,joshrayso
Josh Smith,shitheadnation
Josh Tait,joshtait
Josh West,joshwest88
Joshua Biernacki,jbiernacki77
Joshua Cogoi,bacon.and.chill
Joshua Earnest,jearnest81
Joshua Eaves,jeavespls
Joshua Janzen,janzen_joshua
Joshua Rodda,the_walls_of_jericho_training
Josue Garzoria,garzoria98
Josue Rodriguez,sweyduction
Joy Nnamani,j_nnamani
JP Carroll,jp_carroll_fyfm
JP Price,jplifts_sbc
Julia Bringans,squatz4sushi
Julie Brookfield,jkbambii
Julien Comte,jucomte
Julio Serrano,fookin_kris_jul
Julius Maddox,irregular_strength
Justin Beringer,just_in.b
Justin Bethune,justinbethune22
Justin Byrnes,beer_bacon_deadlifts
Justin Caputo,justin.caputo
Justin Herder,herderjd
Justin Jackson,klimaxx
Justin McGarvey,comicstrong
Justin Music,justinmusic72
Justin Sowers,sowers_dont_tweet
Justin Villegas,justinrvillegas
Justin Wilson,jwils_mtnbkr_pwrlftr
Justin Zottl,jzottl
Kade Weber,kadeweber2150
Kaine Boudreau,kaineboudreau
Kainon Clark,kainonclark
Kaitlin McCanless,kaitlintattoos
Kaleb Collins,kalebjcollins2
Kali Archipley,kilo_lima_alpha
Kalle Räsänen,kalle_rs
Kareem Baassiri,kareeembaassiri
Kareem Browne,megaskoreem
Karina Mosqueda,karina.crystal_
Karl Hjelholt,thegreatwhiteorc
Karl Kumm,kdrporkchop
Karrie Macknair,k__mack
Kate Bethune,katebethune
Kate Hart,bratsy_cline
Kate Mitchell-Parker,katemitchellparker
Katelyn O'Donnell,k_odon
Katie Hogan,katiehogan777
Katja Piscitelli,fitness_katja
Katrina Bielomyza,hurricane_katrina_bielomyza
Katrina Dajano,kattypops
Katrishia Lee,kitty.meowers
Kawika Kahalehoe,kawikakahalehoe
Kayla Forcier,kaylaforcier
KC Mitchell,that1legmonster
Keeten Jones,kreetenstrength
Keith Baker,keith_apl
Keith Correa,itschiefkeith
Keith Kanemoto,squat705
Keith McHoney,keithmchoneypowerlifter
Kelley Christopher,kelleyfit
Kelley Wolfe,insaneinnovationsllc
Kelli Allen,kelli_matt_ironmafia
Kelli Ennis,kelli.akiko
Kelli Sanders,k3llisanders
Kellin Lee,dieselmonster_51
Kelly Branton,great_white_north_juggernaut
Kelly Phasey,kelphay
Kelsey Horton,kelseyhorton1989
Kelvin Truong,ktruongpl
Ken Morris,kenlimitlesssc
Kenneth Coleman,kennethcoleman6268
Kenneth Nwaezeigwe,kennethnwa
Kerri Skladan,deadlifts_and_diamonds_
Kevin McHugh,mchuge655
Kevin Oak,oakstrong
Kevin Papaj,p_a_p_a_j
Kevin Torres,pitbull_torres
Kiara Humble,kiarahumblepowerlifter
Kim Gustafsson,kim_lsk
Kim Tran #1,agentvalentine
Kimberley Cowell,kc_pl
Kimberly Walford,trackfu
Kimmy Brooks,kimberland22
Kirill Sarychev,sarychevkirill
Kirk Bankert,kirkbankert
Kjell Egil Bakkelund,kjelllbrell
Kleid Bukas,kleidb
Kody Blazek,deadliftingandstuff
Kole Metts,koledmetts
Konstantīn Konstantīnovs,kk_powerlifting
Konstantin Pozdeev,pozdeevk
Kris Lewis,catchsumzs
Krissy Medina,kmystk81
Kristin Wykoff,wykoff_lifts
Kristina Kanemoto,krissyypoo
Kristine Almroth,kristinealmroth
Kristy Hawkins,kristy_hawkins
Krzysztof Wierzbicki,mr.deadlift
Kurt Roudebush,kurtroudebush
Kyle Banks,kbpowerlifting
Kyle Brennan,b.rennnan
Kyle Chase,thekylechase
Kyle Coogan,kylecoogan
Kyle Evans,kyle.m.evans
Kyle Hendricks,khendrickspower
Kyle Hunt,huntfitness
Kyle Kendrick,k.r.k14
Kyle Keough,kylekeough165
Kyle Milnes,kjmilnes_astc
Kyle Sheridan,sheridanstrong
Kyle Stewart,kylebenches
Kyle Tripp,cub_lifts
Kylee Craig,platinumpowerprincess
Kylie Brewer,kylie_brew
Lacey Massari,littlelaceylulu
Lacey Mesley,_the_lace_
Lachlan Green,lachgreen
Lance Hickey,lancehickey
LaRodrick Duncan,drugfreemonsta
Larry Schuck,larry_schuck
Larry Williams #1,larrywheels
Laura Berry,bezzaboos
Laura Hartley,teach_fit_hartley
Laura Phelps-Sweatt,queenbeepower
Laura SanBoeuf,withoutbeef
Laura Sgro,pocketrocket_booom
Lauren Chisom,laurenmechele
Lauren Dyer,laurendyer18
Lauren Green,lozhannon
Laurie Radler,laurieradler
Lawrence Calabrese,ldcalabrese
Lawrence Maday,enzo127
Layne Norton,biolayne
Lazaro Rodriguez Jr,strengthetics
Leah Davis,leahrmt
Leah Kiblin,hybridchic
Leah Lutz,leah_barbellmedicine
Leah Reichman,leahreichman
Lee Powell,lpowell_181
LeeAnn Hewitt,hewittleeann
Leigh Wetheridge,leigh_wetheridge
Lenard Jones,lenardj18
Lenny Wicks,wicks.fit
Leon Brown,leon_brown_powerlifter
Leonardo Sucitra,cg_lionheart
Leonetta Richardson,manainsidev2
LeRoy Walker,lwthemachine
Les Grills,arseflip
Lesley Bowen,lesleyellen
Leslie Evangelista,tanzenmuskelbier
Leslie Myers,chilla_saurus
Lester Nolasco,lester_nolasco
Liane Sabourin,lianesabourin
Lianne Brook,lianne_brook
Lien Percy,lienpercy
Lil Bianchi Kimble,lill_kimble
Linda Chan,musclemaus
Lindsay Small,smallsquats
Lisa Guggisberg,mrsgoogs
Lisa Jurakovich,lisajurakovich
Lizette Salgado,lizardd05
Logan Chapman,logan_chapman_
Logan Emery,biglifter92
Logan Leverett,logan_leverett
Louie Ortiguerra,louie_xcell
Louis V. Sica,lousic78
Louise Richardson,louiserich
LS McClain,lsm97m
Lu Shalili,lu.zilla
Lucas Banks,lucasbanks161
Lucas Martin,lucasmartinfit
Lucian York,toobigformyshirt
Luigi Fagiani,luigifagiani
Lukas Nering,lukasnering
Luke Bennett,lukejbennett
Luke Dixon,luuuuuukey
Luke Dreier,ldreier_bigiron
Luke Edwards,lukeedwards2100
Luke Graham,luke_kilograham
Luke Poli,lukepoli
Luke Richardson,lukeerichardson
Luke Selover,lifting_luke
Lyndall Vile,lyndallvile_co
Maaike De Vries,maaike_de_vries
Mabelle Bong,mabesmysashimi
Mackie Fleishman,mackiefleishman
Madai Nguyen,power_margie
Madeleine Forberg,maddyforberg
Maliek Derstine,maliekderstine
Mallory Rowan,malloryrowan
Manuel Prieto,bigredmanny
Mara Rosenfeld,leetlemara
Marc Flores,d0uevenlift
Marco Galindo,marcogalindojr
Marcos Rivera,marco.rivera14
Marcus Hicks,hicksy.88
Marcus Leoni,marcus.leoni
Marcus Morris,marcusmorris15
Marcus Parkus,marcus.parkus
Marcus Sannadan,filipinothunder
Margarita Lisoboy,ritalisoboy
Maria Htee,maria_htee
Maria Panferova,pinochka77
Maria Ramos,maria_ramos_powerlifting
Mariah Corke,mariahcat
Marianna Gasparyan,power_mayan
Mariella Fisher,mari3lla_pl
Marina Misuric,marina.misuric
Mario Flotta,fit_flow_88
Marisa Drew,marisadrew_
Mariša Golob,marisagolob
Marisa Inda,marisainda
Mariusz Pilinski,mariusz_pilinski_strongman_
Mark Bell,marksmellybell
Mark Brandenburg,gearlesspower
Mark Chieco,mchieco
Mark Langley,markfails
Mark Macqueen,markmacqueen2
Mark Melancon,smmelancon
Mark Miller,ironmafia_4brosgym
Mark Plummer,markplummer97
Mark Selyukov,mark_selyukov
Marlinde Gras,marlindegras
Marlow King,marlowjess
Marte Elverum,frkelverum
Martin Borgland Rønning,grizzlysterk
Martin Olivera,kmart_110kg
Martins Kruze,martinskruze
Maryana Naumova,maryana_n
Mason Cabney,mas__daddy
Mason Cervantes,masscervantes
Mason Clemens,mason_lifts
Mason Cupp,mason1008
Mason Liu,masonxwl
Mason Taylor,_masewindu
Mathew Procak,procakliftsthings
Matt Bund,peninsulabarbell
Matt Disbrow,mdisbrow
Matt Draper,draperm64
Matt Fryfogle,bigmattfryfogle
Matt Mitchell,matt_bulldog_mitchell
Matt Piscitelli,mattpisc
Matt Wallace,mattwallace148
Matt Wenning,realmattwenning
Matthew Arremony,lil_tortoise_snurr
Matthew Hoffman,mbhoff
Matthew Jones,yaboimattjones
Matthew McCormick,macstrength9
Matthew Schenone,mjschenone
Matthew Sollay,matthew_sollay
Matthew Staub,mattyice234
Mauro Franklim,maurofranklim
Mauro Spinardi,maurospinardicoach
Max Aita,max_aita
Meana Franco,meanafranco
Megan Cotcher,megan_cotcher
Megan Gallagher,megsquats
Megan Kitagawa,kittygawah
Mehar Bhogal,mehars_life
Meicha Hardeman,inlightenedwarrior
Melanie Douglas,melie_doug
Melissa Barber,thats.so.swolissa
Melissa Cotton,lilmelliemel
Melissa Grix,carbsandprs
Melissa Hala,misshala.fit
Melvin West,barbellbully_tahir
Mia Cuevas,miacuevas_
Micah Hudson,cyborg_barbell
Micah Marino,micah_marino
Michael Albigese,malbigese
Michael Armendariz,michael.armendariz
Michael Black,mc_black33
Michael Bozeman,mbozeman88
Michael Brinson,coachbrinson_
Michael DeStefano,michael_destefano
Michael Estrella,mikeyestrella
Michael Giles,michael__giles
Michael Hsiung,mchsiung1
Michael Jurgelewicz,mikej425
Michael Kuhns,mikey60kg
Michael McCann,mccannics181
Michael Mitchell,michaelwmitchell3
Michael Petyak,yakattack6
Michael Russell Jr,maddmike51
Michael Tuchscherer,miketuchscherer
Michael Wong,magicmike5580
Michael Zundelevich,mzundy81
Michał Rudziński,michal.barbell
Micheal Seay,maseayjr
Michele Petro,mich2316
Michelle Franklin,thisgrannycan
Michelle Leu,mich_leudles
Michelle Lin,meeshell1n
Mickael Cloutier,mickcloutier
Mika Edwards,mje_8
Mike Conley #1,high_carb_diet
Mike Conley #2,king_con_16
Mike Farr,silentmikke
Mike Giannini,mikecg2388
Mike Lackey,mlack15
Mike McGivern,mikemcgivern
Mike Rubinetti,ironmikerubes
Mike Saravane,mikemoose83
Mike Scherer,scheeerpower
Mike Swierczynski,skiboy1955
Mikhail Koklyaev,koklyaev_mikhail
Mindy Chen,baconandbiceps
Minna Pajulahti,minnapajulahti
Miranda Chisom,mirandybrook
Mitchell Deskis,deskisstrength
Mitchell Fountain,mitchell_fountain
Mohamad Arnaout,thearnaout
Mohamed Bouafia,bouafia.powerlifting
Molly Mullikin,mollykm
Molly Star,mollystarlifts
Monica Hwu,momoneeeey
Monica Medrano,moni_strength
Morgan Turner #1,powerprenzs
Morocco Arnold,elite_powerlifter
Murad Alibegov,murad.alibegov
Mustaffa Bin Khidhir,mustaffa.khidhir
Najat Khoury,magscuz
Nam Shartzer,namnamnamm
Naomi Graham,naomi_kgram
Naomi Kutin,naomi.supergirl
Naomi Sheppard,naomiasheppard
Natalie Cameron,bananabacknat
Natalie Hanson,natalie.907
Natalie Terrana,natuhlee18
Nate Suangpo,ns614
Nathalie Moen Balhald,nathmoen
Nathan Alexander,alexandernathan
Nathan Baptist,bigtrac55
Nathan Kim,nathankim.js
Nathan Robertson,ns.powerlifter
Nathan Tanis,nathan_tanis
Nazariy Hrynkiw,the_squatting_slav
Neil Austin,bigfreakinneil
Ngarimu Herewini-Pera,zerobenchgame
Nicholas Austin,lucky_ifbb
Nicholas Brooks,nicholasbrooks25
Nicholas Donte McCoy,tank_thelivinglegend
Nicholas Kearns,kearnsnm
Nicholas Perdrisat,njpstrength
Nick Best,nickbeststrongman
Nick Cook,cookiemonsta08
Nick Edlin,ed.nick
Nick Fisher,nickfisherpowerlifting
Nick Gilmore,ngilmore21
Nick Gout,nick_gout_shw
Nick Henwood,nhenwood165
Nick Israel,nickisrael_dpt
Nick Kiger,kigerstrength
Nick Pierson,nickp814
Nick Ramey,nick_ramey
Nick Rice,rice126
Nick Wright,nickwrightnwb
Nicklas Burilovich,nick_burilovich
Nicolas Bolt,nicolasbolt
Nicole Amsler,namsler
Nicole Balkau,nikki_b11
Nicole de Mello,nicoledemellopt
Nicole Gonzalez,nikkigunz83
Nicole Lutz,nicfit8987
Nicole Nguyen,little__bigfoot
Nicole Ordway,kanikkey
Nicole Petro Kurant,petrotwin
Nicolette Zeigler,_trapeziusqueen
Nikhil Thomas,nthomas90
Niki Sims,vera_nahce
Nikki Klein,nikkian148
Noah Brooks,noahtbrooks
Noel Gragasin,noel.gragasin
Noelia Corona-Terry,ncoronaterry18
Odell Manuel,odellmanuelpowerlifter
Ofir Birenbaum,ofirbirenbaum
Ogden J Myklebust III,og_triple_0g
Ogechi Akalegbere,getchmeifyoucan
Oleksii Melnyk,melnyk_olexii
Olga Skorokhodova,olga_skorokhodova_
Olivia Hicks,livilifts
Ollie Walker,ollie.w
Oran Smith,oranksmith
Owen Hubbard,ohubb
Owen Lockwood,owen_lockwood_powerlifting
Pamela Anderson,pamv_anderson
Pat Thera,iron.outsider.1
Pat Thompson,the.patthompson
Patrick Jeffries,beardedbrawn23
Patrick Morrison,manletmorrison
Patrick Vincent Maguire,full_primal_power
Paul Childress,childressp
Paul Nguyen,pvn26
Paul Revelia,paulrevelia
Paul Vidmar,fatharrypotter
Paula Gentle,pjgentle
Paulo Tanaka,paulo.tanaka
Payal Ghosh,pghosh2
Payje Brewster,payjeyflex
Perry Ellis Jr,perryellisstrong
Perseus Black,its_perseus
Pete Rubish,pete.rubish
Peter Hoang,peterhoang_
Peter Li,petelifts
Peter Nguyen,peterpowerrifter
Peter Tsao,peteyxcore
Petr Petráš,petras.petr
Phillip Brown,flipdbrown
Pierre Shillingford,easypeezly
Pip Brown,pip__brown
Porter Wood,pwood86
Primo Fantin,primo.74
Priscilla Ribic,priscillaribic
Quessandra Catlett,squatruhh
Quinn Clarke,papagrizzles
Rachael Johnson,bulkingk9
Rachel Anyi,rvchelvnyi
Rachel Frisbie,roboe92
Rachel Kiefer,braids_and_barbells
Rachel Morrison,rachtmorrison
Rachel Orbach,raychrrles
Rachel Younker,rachelyounker
Rainer Altmäe,rainer198
Raishel Phares,ironyokai
Rait Sagor,rait_sagor
Raleigh Dia,raleighdia_
Ramon Orlanes,section.999
Ramon Zayas,rzayas3
Randi Lee,island_randi
Randy Mazzie,bigmazofficial
Ranson Lee,ransonlee
Ray Jimenez,powerweightray
Ray Ortiz,rortizeltoro
Ray Saraiva,rayy827
Ray Williams,optimusprime_334
Raymond Chow,raychow1
Rebecca Heath,becki_77
Rebecca Holcomb,prettystrongbec
Reid Miranda,reid_miranda
Rene Leger,reneleger
Renee Gipp,renee.gipp
Reyhan Roybal,reyhanroybal
Rhaea Stinn,rhaeastinn
Rheta West,power_lady_74
Rhiannon Keith,the_valkyrhi
Rhianon Lovelace,rhi_rhi_fitness
Rhyss Keane,pale_horse_powerlifting
Richard Gallagher,gallagherrichard
Richard Hawthorne,corestrong010
Richard Hozjan,richardhozjan
Richard Hulick,the_rich_h
Richard Navarra,partywitrj
Richard Ramos,richard_r_ramos
Richie Perrin,darkhorsezombie
Rick Simmons,simmons_strength
Ricky Bolanos,rico_1632
RJ Forbes,rj_forbes
RJ Hizon,originally_rj
Rob Escalante,strengthrob
Rob Hall,worldbreakersavage
Rob Larson,rlarson17
Rob Lineker,roblineker
Robb Philippus,quadslikerobb
Robbie Capriles,robbcap101
Robbie Sardinia,rsardinia
Robert Adams,hulkster275
Robert Bain,bain316
Robert Morrison #1,rmorrison189
Robert Rodney,chiseledice
Robert Sikes,rsikes
Robert Taylor,robzilla504
Robert Wilkerson,bigwilk51
Robin Figelman,slim_fig
Rodney Manor,bigrodlift
Rodrigo Manzo,rodrigo.manzo
Roman Antonyak,romanantoniak
Roman Eremashvili,eremashvili.roma
Ronald Tarvin,sir_gymratfitness
Ronald Tolie,see_ron_squat_and_stuff
Rondel Hunte,deadlift_lord868
Rory Girvan,rory__girvan
Ross Leppala,ross_rts
Rostislav Petkov,ross_petkov
Routh Thach,sreyrouth
Rowan Hendry-Horne,specialsundae
Ruby Vella,rubysephora_figure
Ruchell MacGregor,rockiies
Rudy Harbin,rudboysantana
Russel Orhii,russwole
Russell Hutchins,russ_hutchins
Ruta Lendraitiene,rutastrong
Ruthie Luna,r.lunaaa
Ruud Kassing,kassingcouch
Ryan Celli,ryancelli
Ryan DeFea,flyinryan_d
Ryan DeGeorge,ryanmichael298
Ryan Gregnol,ryangregnolfitness
Ryan Jabalee,ryan.jabs
Ryan Kiecker,fresh_kiecks
Ryan King,ryandking
Ryan Lataash,little_lataash
Ryan Raynier,furious_george181
Ryan Rubio,ryanrubiocp
Ryan Spencer,politicalmuscle
Ryan Stinn,stinndler
Ryan Turgano,turganomon
Ryan Williams,ryan_williams77
Sabrina Moore,innerstrengthuk
Sam Bernstein,samuellbernstein
Sam Byrd,sambyrd1
Sam Dean,samdeanmachine
Sam Hinks,stanleyhinks94
Samantha Bechard,sam.bechard
Samantha Briggs,bicepslikebriggs
Samantha Cabrera,fitconfidenthappy
Samantha Calhoun,sculptedcreations
Samantha Coleman,colemanstrong
Samantha Todd,samirae_spartanbarbell
Sami Vaskelainen,vaskelainen_powerlifting
Sammi Johnson,nopantssammi
Samuel Lloyd,samtreetops
Samuel Robinson,sdotrob
Samyra Abweh,minimyraa
Sara Brady,sarabethbrady
Sara Cowan,saracowan95
Sara Florence,halfmoonspeak
Sarah Brenner #1,sarahskwaats
Sarah Brown,tattedfitchic
Sarah Houhoulis,saritobandito
Sarah Lanzillo,strongsarah7
Sarah Lewis,sarah.lewis_
Sarah McCaffrey,sarah_moh_caf
Sarah Petrie,sarahmarie6388
Sarah Rainbow,sarah_rainbow
Sarah Skinner,sarah_skins
Sarah Vance #1,sarah.renee.lifts
Sascha Stendebach,sascha_stendebach
Sawyer Yandell,sawyer_fuerte
Schalk-Willem Engelbrecht,schalk_engelbrecht
Scott Bradwell,scott_the_squat
Scott Cartwright,bighosscartwright
Scott Longhofer,metaljerk
Scott Shufelt,shufeltscott
Scott Stiefeld,too_hotti
Scott Sullivan,squatsullivan
Scotty Clark,scotty.clark22
Sean Baker,outlaw181
Sean Culnan,sculnan
Sean Moser,seanmoser19
Sean Noriega,kissmyarch
Sean Stangl,ferruix
Sean Tomac,seantomac125
Sebastian Oreb,australianstrengthcoach
Sergey Daragan,sergey.daragan
Sergey Fedosienko,sergey_fedosienko
Sergey Gladkikh,sergeyfpr0303
Sergio Luna,surgetonewlevels
Seth Bowles,140horse
Sevasti Anastasiadis,sev_anastasiadis
Seyonn Chinn,123cuts
Shadi Zahed,recklessgains
Shahriar Sabri,fatglutesfatsloots
Shana Miller,shana___miller
Shane Hammock,rshammock55
Shane Langston,corndog_strong
Shane Martin,smartlifts
Shanna McKenzie,shanna.mckenzie
Shannan Thompson,teddybeast__
Shannon Graszat,gunzandbuns
Shannon Mutch,shannypanny_
Shaun Kopplin,the_heartbreakkid
Shaun Shapiro,bacon_and_triceps
Shawn Campbell,shawnbearillacampbell
Shawn Doyle,shawn.doyle308
Shawn Frankl,shawnfrankl
Shawn Frasquillo,sfra59uillo
Shawn Hendrix,shawnrhendrix
Shawn Murphy,shawnmurphy1
Shawna Mendelson,mendelsonstrength
Shelby Talon,shelby_talon
Shenae Healey,shenae.healey
Sheri Miles,sheri__miles
Sherine Marcelle,sincerelysherine
Shorty Sadang,shortylifts
Siim Rast,tzaby
Simon Restifa,rugbysmartarse
Simon Williams,siiiwilliams_powerlifter
Sin Leung,sinjatakespics
Siobhan Taylor,totallyawesometaylor
Sion Hughes,sion_hughes
Skyler Hjelm,skyler_sloan
Skyler Pike,pikeskyler
Sniazhana Zubko,zubko_sniazhana
Sofia Loft,loftsofia
Solomon Levin-Sanders,strongbellysully
Sophia Waldemarson,sophiawaldemarson
Stacia-Al Mahoe,ii.am.legend.01
Stacy Amorim,mrs.bba_gym
Stacy Burr,bamaburr
Stan Efferding,stanefferding
Stanley Schultz,stanleythethird
Stefanie Cohen,steficohen
Steph Powell,steff_eff15
Stephanie Gaspari,stephgaspari
Stephen Burns,burns_sdb
Stephen Cascioli,casciolisc
Stephen Krieger,grumpyoldpowerlifter
Stephen Lehew,blake_74kg
Stephen Manuel,screamermanuel
Stephen Rubalcaba,fcrubalcaba100
Stephen T. Adams,thee_squatch
Stephen Teeters,teeters93kg
Stephen Wilson,stephenwilsonathlete
Steve DeNovi,sdenovi
Steve Gentili,ptfitness500
Steve Goggins,gogginsforce
Steve Jellett,redbeardlifting
Steve Johnson #2,forsakenwarrior
Steve Mann,smannofsteel
Steve Shaw,bendthebarman
Steven Archer,bigstrengthsteve
Steven Maradona,stevenaay
Stian Walgermo,walgermo
Stina Åkemalm,stinaakemalm
Susan Salazar,supers2o
Suzanne Davis,suzanne_davis_ifbb_pro
Suzanne Hartwig-Gary,siouxz52kg
Szu Han Yang,sarahyangsy
Tabitha Anderson,bigsid12
Tabitha Gleason,brains_and_gains.tabitha
Tanja Stenholdt Olsen,tanja__olsen
Tanner Baird,massenomics
Tanner Madison,tannermadison
Tanner McBride,tanner_tiberius
Tanya Bull,tanyabull83
Tara Duncan,liftlikemommy
Tara Green-Webber,taragreenwebber
Tarra Oravec,tarra.oravec
Taryn Albright,waternweights
Tasmin Campbell,tazzy_cam
Tate Brinkley,taterstrong
Tatyana Polstyanova,tatyana_polstyanova67
Tavis Harris,the_iron_captain_yeg
Taylar Stallings,taylarmade
Taylor Atwood,t_atwood
Tee Cummins,tee_cummins
Tee Popoola,teepopoola
Teresa Parsons,teresaparsons
Teresa Yeung,aserettt
Terrian Ashley,terriboo621
Tess Heaslip,tessredsky
Thaheer Mannan,tazpowerlifting
Theresa Simanu,resa_008
Thomas Biddle,tomweightz
Thomas Blackwell,bigtommyblack
Thomas Davis,tdsmash
Thomas DeFea,tomahawk_d
Thomas Knight,peepingtomknight
Thomas Saul,itstomsaul
Thomas Schwarz,ts_pl
Thomas Soto,mightymouse1931
Thu Ngo,acciobeastmode
Tiffany Leung,tinytiff97
Tiffany Nguyen,liftliketiff
Tiffany Peters,tiffany_powerlifts
Tiffany Sengsourigna,tuffany
Tim Dose,timdose72
Tim Garrett,turn_down_for_squat
Tim Parker #1,tparker_16
Timothy Mercer,redbeardbarbell
Tina Daneshmand,tina_tornado
Tiny Meeker,tinymeeker
TJ Dunsmoor,tjdunsmoor
Todd Steffens,mechatoddzilla
Tom Davis,tomdavispl
Tom Dunning,tomdunning92
Tom Finn,huckfinnbarbell
Tom Martin,tommartinpl
Tomi Luhtanen,tomiluhtanen
Tommy O'Connor,toc5
Tony Bolognone,tony_bolognone
Tony Cliffe,tmcpower
Tony Conyers,tony_conyers
Tony Montgomery,tonymontgomeryjr
Tony Vuong,tonyyvuongg_
Tony Wise,everything_or_nothing_
Too Chin Siang,trulysuperman
Tori Goulart,torigoulart
Tory Pelzer,torypelzer
Trace Stewart,tjswole
Tracey Berg-Fulton,theflyingfraction
Tracey Le,icetrray
Tracy Jones,tracy.jones.18
Travis Copeland,trav_cope
Travis Nelson,tnelsonpower
Travis Paul Rose,travisrose_fit
Travis Roberts,travisbr80
Travis Rogers,papabearrogers
Travis Salisbury,trav.salisbury
Trenton Mellinger,tm3lling3r
Trenton Wade,trewade198
Trevor Jaffe,jaffestrength
Trevor Myhre,the_liftertarian
Troy Mulkey,trobertsonm
Troy Unrein,desertviking91
Trystan Oakley,oakleypowerlifting
Tsimpi Mairi,mary_tsibi
Tyler Collins,collins__tyler
Tyler Cummings,tcum_48pl
Tyler E Roy,roy_liftz
Tyler Mingus,tylershmingus
Tyler Obringer,tylerobringer
Tyler Ward,wyler_tard88
Tyree Dunn,pull_mybeard
Tyrel Williams,swolefat
Ulan Anuar,anuar.ulan
Vadym Dovhanyuk,vadymdovhanyuk
Vadym Kotsaga,vadymkotsaga
Valerie Dew,_tenacious_heart_
Valerie King,valrking
Valerie Smith,valerie_smith_powerlifter
Vanessa Burman,vanessa_barbellmedicine
Vanessa Crouch,meatshelf
Vanessa Torres,vanessa_pitbull_torres
Veronique Fradette,freddles.fit
Vicki Jewson,vickjew
Victor Biryukov,v.biryukov_russianboss
Victoria Lodise,victorialodise
Victoria Sukar,veemarie.powerbuilder
Vincent Falzetta,148lbsofmeat
Vincent Raia,vr.strength
Vladimir Kravtsov,vladimir_kravtcov
Vladislav Alhazov,vado.a
Wade Zeno,wadeonyourparade
Wakaba Stephens,leafstrength
Wayne Howlett,waynehowlettpl
Wayne Knight,kauai_knight
Wayne Schmitt Jr,540guy
Wayne Van Nostrand,alpha_swole
Wei-Ling Chen,weiling14951414131
Wendell Sowers,wendellsowers
Wendy Chan,watergirl94
Will Hunt,nemesis_powerlifting
William Andrews,_hunterandrews
William Barabas,barabas_242
William Burrell,i_am_williamburrell
William Crozier,wcroz
Willis Graves,graves_strength
Wynter Addams,wynteraddams
Xiaver Collier,itszay__
Yakov Ionin,yakovionin
Yan-Fei Zhao,yanstahx
Yangsu Ren,deadlift_panda
Yaniv Gur,ygur
Yessica Martinez,yessie_mart
Yianni Manousaridis,yianni50
Yolaunda Campbell,tiny_tank1
Yoshihiro Higa,yoshihiro.270
Yosie Martinez,yosiemartinez1
Yulia Shenkarenko,yulia_shenkarenko
Yury Belkin,belkin_one_power
Zac Meyers,thehulkmeyers
Zach Anschultz,zach_anschultz
Zach Homol,zachhomolpower
Zachary DiCostanzo,dicostaz
Zachary Langdon,ironmanzach
Zachary Patton,lumber_jacked98
Zachary Yamamoto,zmoto_
Zack Carr,zack_carr275
Zahir Khudayarov,zahirkhudayarov
